4-GBIF
…
What we need to do do is import the data into R. Like last time, I made a tibble.

I used the tidyverse library (and dplyr)

To load the file, I used read.table

It is important to consider missing entries in the table with GBIF data

I used as_tibble

I used rename

Create a tibble like so:

## # A tibble: 63,314 x 5
##    Family   Genus Species Latitude Longitude
##    <fct>    <fct> <fct>      <dbl>     <dbl>
##  1 Bothidae ""    ""         -22.0      114.
##  2 Bothidae ""    ""         -22.0      114.
##  3 Bothidae ""    ""         -22.0      114.
##  4 Bothidae ""    ""         -22.0      114.
##  5 Bothidae ""    ""         -22.0      114.
##  6 Bothidae ""    ""         -22.0      114.
##  7 Bothidae ""    ""         -23.0      114.
##  8 Bothidae ""    ""         -23.0      114.
##  9 Bothidae ""    ""         -24.0      113.
## 10 Bothidae ""    ""         -23.0      113.
## # ... with 63,304 more rows

What do we want again?

We would like to have an estimate of number of species within an a degree grid square (e.g.species in 1 deg Latitude by 1 deg Longitude). You may have noticed that we have entries just for Bothidae with no species. Lets remove those.

Use dplyr filter and a Boolean operator

## # A tibble: 56,488 x 5
##    Family   Genus          Species                    Latitude Longitude
##    <fct>    <fct>          <fct>                         <dbl>     <dbl>
##  1 Bothidae Bothus         Bothus mancus                -16.1     -146. 
##  2 Bothidae Engyophrys     Engyophrys sanctilaurentii     7.57     -78.8
##  3 Bothidae Monolene       Monolene asaedae               7.74     -82.4
##  4 Bothidae Chascanopsetta Chascanopsetta lugubris       14.8      123. 
##  5 Bothidae Chascanopsetta Chascanopsetta lugubris       16.2      115. 
##  6 Bothidae Chascanopsetta Chascanopsetta lugubris      -22.9      167. 
##  7 Bothidae Monolene       Monolene asaedae               9.51     -85.2
##  8 Bothidae Taeniopsetta   Taeniopsetta ocellata         20.8      117. 
##  9 Bothidae Chascanopsetta Chascanopsetta lugubris       -5.72     154. 
## 10 Bothidae Monolene       Monolene asaedae               9.51     -85.2
## # ... with 56,478 more rows
…
cellSize -> the grid square ofLongitude/Latidue as a number, e.g.2

breaks -> A vector to combine species counts e.g.c(10, 20, 30)

dataFrame -> A data frame with Family, Genus, Species, Latitude, and Longitude columns.

Using it:

cellSize<-3
breaks<-seq(0, length(levels(df$Species)), 5) # From 0 to 160 here by 10
                   
raster<-Rasterize(cellSize, breaks, df)
raster

## # A tibble: 718 x 4
## # Groups:   Diversity, Breaks [24]
##    Diversity Longitude Latitude Breaks
##        <int>     <dbl>    <dbl> <fct> 
##  1         1     -178.    -46.5 (0,5] 
##  2         1     -178.    -43.5 (0,5] 
##  3         2     -178.    -28.5 (0,5] 
##  4        10     -178.    -19.5 (5,10]
##  5         8     -178.    -16.5 (5,10]
##  6         4     -178.    -13.5 (0,5] 
##  7         1     -176.    -43.5 (0,5] 
##  8         1     -176.    -22.5 (0,5] 
##  9         1     -176.    -19.5 (0,5] 
## 10         1     -176.    -13.5 (0,5] 
## # ... with 708 more rows
…
