3-Bathymetry
…
As part of the tidyverse, dplyr provides a fast way to alter data. It works around verbs https://dplyr.tidyverse.org/. Ill use these dplyr verbs and a pipe, %>%, to summarize Adrians collection information.

First off Ill read in the data and then covert to a tibble. To do so I first converted the original .xlsx to a .csv. Reading in an .xlsx is certainly possible, but more complicated.

A tibble makes it easier for us to view. It limits the output in terms of length and number of digits, etc. Importantly, it tells us what is in each column, i.e.numbers or characters or factors.

library(tidyverse)
library(ggrepel)

data<-as_tibble(read.csv(file="Chelidoperca_geodata.csv"))

data

## # A tibble: 47 x 6
##    Species.name   Specimen.No. Latitude Longitude depth..m. Mean.depth..m.
##    <fct>          <fct>           <dbl>     <dbl> <fct>              <dbl>
##  1 C. leucostigm WJC5681         -2.57      151. 147-151             149 
##  2 C. leucostigm WJC5843         16.1       114. 162-165             164.
##  3 C. leucostigm WJC5844         16.1       114. 162-165             164.
##  4 C. leucostigm WJC5845         16.1       114. 162-165             164.
##  5 C. leucostigm WJC5910         16.1       114. 162-163             162.
##  6 C. leucostigm WJC5911         16.1       114. 162-163             162.
##  7 C. pleurospil WJC6159         20.8       117. 190-221             206.
##  8 C. pleurospil WJC6160         20.8       117. 190-221             206.
##  9 C. pleurospil PNG1690         -2.52      151. 218-234             226 
## 10 C. pleurospil PNG1691         -2.52      151. 218-234             226 
## # ... with 37 more rows

These data have several columns that dplyr can act on. Well send the data along to different verbs with %>%. Lets look at how the data are organized a bit more.

There are multiple species entries for the same locations and about the same depth. We can use dplyr functions to reshape the data.

One thing I would like is to rename the columns.

df1<-data %>% rename(Species=Species.name, MeanDepth=Mean.depth..m.)

df1

## # A tibble: 47 x 6
##    Species             Specimen.No. Latitude Longitude depth..m. MeanDepth
##    <fct>               <fct>           <dbl>     <dbl> <fct>         <dbl>
##  1 C. leucostigmata n WJC5681         -2.57      151. 147-151        149 
##  2 C. leucostigmata n WJC5843         16.1       114. 162-165        164.
##  3 C. leucostigmata n WJC5844         16.1       114. 162-165        164.
##  4 C. leucostigmata n WJC5845         16.1       114. 162-165        164.
##  5 C. leucostigmata n WJC5910         16.1       114. 162-163        162.
##  6 C. leucostigmata n WJC5911         16.1       114. 162-163        162.
##  7 C. pleurospilus     WJC6159         20.8       117. 190-221        206.
##  8 C. pleurospilus     WJC6160         20.8       117. 190-221        206.
##  9 C. pleurospilus     PNG1690         -2.52      151. 218-234        226 
## 10 C. pleurospilus     PNG1691         -2.52      151. 218-234        226 
## # ... with 37 more rows
…
I would like the data in terms of how many collections/site at a certain mean depth.

group_by groups by column name, those entries that share the same Species, Latitude, Longitude, and Mean Depth are put together.

count() gives us the number in the group in a new column n

rename changes n to N.

df2<-df1 %>% group_by(Species, Latitude, Longitude, MeanDepth) %>%
  count() %>%
  rename(N=n)

df2

## # A tibble: 22 x 5
## # Groups:   Species, Latitude, Longitude, MeanDepth [22]
##    Species                 Latitude Longitude MeanDepth     N
##    <fct>                      <dbl>     <dbl>     <dbl> <int>
##  1 C. aurantimaculata nsp.   -25.1       160.      295      1
##  2 C. aurantimaculata nsp.   -24.2       160.      295      1
##  3 C. aurantimaculata nsp.   -23.2       160.      280      2
##  4 C. aurantimaculata nsp.   -22.3       169.      338      1
##  5 C. lecromi                -22.8       167.      264.     1
##  6 C. lecromi                -19.8       158.      280      6
##  7 C. leucostigmata nsp.      -2.57      151.      149      1
##  8 C. leucostigmata nsp.      16.1       114.      164.     3
##  9 C. leucostigmata nsp.      16.1       114.      162.     2
## 10 C. nsp.A.                 -22.7       167.      285      1
## # ... with 12 more rows
…
